[
    {
        "nid": "Chpt1",
        "terrain_grid": {},
        "autotiles": {
            "8,0": 0,
            "9,0": 1,
            "9,1": 2,
            "10,0": 3,
            "10,1": 4,
            "10,2": 0,
            "11,0": 5,
            "11,1": 6,
            "11,2": 7,
            "11,3": 0,
            "12,0": 8,
            "12,1": 9,
            "12,2": 3,
            "12,3": 5,
            "13,2": 6,
            "13,3": 1,
            "13,4": 10,
            "14,0": 0,
            "14,1": 11,
            "14,2": 4,
            "14,3": 12
        }
    },
    {
        "nid": "Prologue",
        "terrain_grid": {},
        "autotiles": {
            "0,2": 0,
            "2,1": 1,
            "2,2": 2,
            "3,1": 3,
            "4,1": 4,
            "5,0": 5,
            "5,1": 2,
            "6,0": 6
        }
    },
    {
        "nid": "Chpt2",
        "terrain_grid": {},
        "autotiles": {}
    },
    {
        "nid": "SacredStonesBase",
        "terrain_grid": {},
        "autotiles": {}
    },
    {
        "nid": "Chpt3",
        "terrain_grid": {},
        "autotiles": {}
    },
    {
        "nid": "SacredStonesVillage",
        "terrain_grid": {},
        "autotiles": {
            "22,20": 0,
            "22,25": 1,
            "22,26": 2,
            "23,19": 3,
            "23,20": 4,
            "23,25": 5,
            "23,26": 6,
            "24,20": 7,
            "24,25": 8,
            "24,26": 9,
            "25,20": 10,
            "25,25": 11,
            "25,26": 12,
            "26,14": 13,
            "26,15": 14,
            "26,16": 15,
            "26,17": 16,
            "26,18": 17,
            "26,21": 18,
            "26,22": 19,
            "26,23": 20,
            "26,25": 21,
            "26,26": 22,
            "27,14": 23,
            "27,15": 24,
            "27,16": 25,
            "27,17": 26,
            "27,18": 27,
            "27,21": 28,
            "27,23": 29,
            "27,25": 30,
            "27,26": 31,
            "28,17": 32,
            "28,19": 33,
            "28,21": 34,
            "29,17": 35,
            "29,22": 36,
            "30,17": 37,
            "30,19": 38,
            "30,20": 39,
            "31,15": 40,
            "31,19": 41
        }
    },
    {
        "nid": "GradoKeep",
        "terrain_grid": {},
        "autotiles": {}
    },
    {
        "nid": "Chpt14B",
        "terrain_grid": {},
        "autotiles": {}
    },
    {
        "nid": "Chpt4",
        "terrain_grid": {},
        "autotiles": {
            "0,8": 0,
            "2,8": 0,
            "2,14": 1,
            "3,8": 2,
            "3,9": 3,
            "3,13": 4,
            "3,14": 5,
            "4,11": 1,
            "4,13": 5,
            "5,9": 6,
            "5,10": 4,
            "5,11": 5,
            "6,8": 4,
            "6,9": 7,
            "6,10": 5,
            "8,7": 1,
            "8,8": 5,
            "10,7": 2,
            "10,8": 3,
            "11,8": 8,
            "11,9": 3,
            "12,9": 2,
            "13,10": 0
        }
    },
    {
        "nid": "Chpt5",
        "terrain_grid": {},
        "autotiles": {}
    },
    {
        "nid": "MagvelWorldMap",
        "terrain_grid": {},
        "autotiles": {}
    },
    {
        "nid": "Village 1 ShipInside",
        "terrain_grid": {},
        "autotiles": {}
    },
    {
        "nid": "Village 1 Mountains",
        "terrain_grid": {},
        "autotiles": {}
    },
    {
        "nid": "FE8 - Village - 0e000f10",
        "terrain_grid": {},
        "autotiles": {}
    },
    {
        "nid": "FE8 - Mountainous - 6c006d6e",
        "terrain_grid": {},
        "autotiles": {
            "20,6": 0,
            "20,7": 1,
            "20,8": 2,
            "20,9": 3,
            "20,10": 4,
            "21,6": 5,
            "21,7": 6,
            "21,8": 7,
            "21,9": 8,
            "21,10": 9,
            "26,18": 10,
            "30,18": 11,
            "30,19": 12,
            "30,20": 13,
            "31,20": 11,
            "31,21": 14
        }
    },
    {
        "nid": "FE8 - Plains - 2e002f30",
        "terrain_grid": {},
        "autotiles": {}
    },
    {
        "nid": "Unbroken Heart",
        "terrain_grid": {},
        "autotiles": {
            "3,4": 0,
            "3,5": 1,
            "4,4": 0,
            "4,5": 1,
            "5,4": 0,
            "5,5": 1,
            "5,16": 2,
            "5,17": 3,
            "5,18": 3,
            "6,4": 4,
            "6,5": 5,
            "6,16": 0,
            "6,17": 1,
            "6,18": 6,
            "7,18": 1,
            "8,17": 4,
            "8,18": 5,
            "9,17": 0,
            "9,18": 1,
            "10,17": 0,
            "10,18": 1,
            "11,17": 4,
            "11,18": 5,
            "20,0": 3,
            "20,1": 3,
            "20,2": 3,
            "20,3": 3,
            "20,4": 3,
            "20,5": 3,
            "21,0": 7,
            "21,1": 6,
            "21,2": 6,
            "21,3": 7,
            "21,4": 6,
            "21,5": 7
        }
    },
    {
        "nid": "Victims of war",
        "terrain_grid": {},
        "autotiles": {}
    },
    {
        "nid": "Victims of war_fog",
        "terrain_grid": {},
        "autotiles": {}
    },
    {
        "nid": "Waterside Renvall",
        "terrain_grid": {},
        "autotiles": {
            "3,5": 0,
            "3,6": 1,
            "3,7": 1,
            "3,8": 2,
            "4,2": 1,
            "4,3": 2,
            "4,4": 1,
            "4,5": 3,
            "4,6": 4,
            "4,7": 4,
            "4,8": 1,
            "4,9": 2,
            "5,1": 0,
            "5,2": 4,
            "5,3": 5,
            "5,4": 4,
            "5,5": 5,
            "5,6": 4,
            "5,7": 5,
            "5,8": 4,
            "5,9": 0,
            "5,10": 1,
            "6,1": 3,
            "6,7": 3,
            "6,8": 0,
            "6,9": 3,
            "7,8": 3,
            "7,21": 6,
            "9,0": 2,
            "10,0": 5,
            "10,8": 0,
            "10,10": 0,
            "11,0": 0,
            "11,1": 3,
            "11,8": 3,
            "11,9": 1,
            "11,10": 3,
            "12,1": 1,
            "12,2": 2,
            "12,8": 1,
            "12,9": 1,
            "12,10": 2,
            "13,2": 4,
            "13,3": 5,
            "13,4": 1,
            "13,5": 2,
            "13,6": 1,
            "13,7": 2,
            "13,8": 4,
            "13,9": 4,
            "13,10": 5,
            "14,4": 4,
            "14,5": 5,
            "14,6": 4,
            "14,7": 5
        }
    },
    {
        "nid": "Its a Trap!",
        "terrain_grid": {},
        "autotiles": {}
    },
    {
        "nid": "Distant Blade",
        "terrain_grid": {},
        "autotiles": {}
    },
    {
        "nid": "Fort Rigwald",
        "terrain_grid": {},
        "autotiles": {}
    },
    {
        "nid": "Revolt at Carcino",
        "terrain_grid": {},
        "autotiles": {}
    },
    {
        "nid": "Turning Traitor",
        "terrain_grid": {},
        "autotiles": {}
    },
    {
        "nid": "Darkling Woods",
        "terrain_grid": {},
        "autotiles": {}
    },
    {
        "nid": "Demon King (Map)",
        "terrain_grid": {},
        "autotiles": {}
    },
    {
        "nid": "Creeping Darkness",
        "terrain_grid": {},
        "autotiles": {}
    },
    {
        "nid": "Father and Son",
        "terrain_grid": {},
        "autotiles": {}
    },
    {
        "nid": "Fluorspar's Oath",
        "terrain_grid": {},
        "autotiles": {}
    },
    {
        "nid": "Hamil Canyon",
        "terrain_grid": {},
        "autotiles": {}
    },
    {
        "nid": "Lagdou Ruins 1",
        "terrain_grid": {},
        "autotiles": {}
    },
    {
        "nid": "Lagdou Ruins 2",
        "terrain_grid": {},
        "autotiles": {}
    },
    {
        "nid": "Lagdou Ruins 3",
        "terrain_grid": {},
        "autotiles": {}
    },
    {
        "nid": "Lagdou Ruins 4",
        "terrain_grid": {},
        "autotiles": {}
    },
    {
        "nid": "Lagdou Ruins 5",
        "terrain_grid": {},
        "autotiles": {}
    },
    {
        "nid": "Lagdou Ruins 6",
        "terrain_grid": {},
        "autotiles": {}
    },
    {
        "nid": "Lagdou Ruins 7",
        "terrain_grid": {},
        "autotiles": {}
    },
    {
        "nid": "Lagdou Ruins 8",
        "terrain_grid": {},
        "autotiles": {}
    },
    {
        "nid": "Lagdou Ruins 9",
        "terrain_grid": {},
        "autotiles": {}
    },
    {
        "nid": "Lagdou Ruins 10",
        "terrain_grid": {},
        "autotiles": {}
    },
    {
        "nid": "Landing at Taizel",
        "terrain_grid": {},
        "autotiles": {}
    },
    {
        "nid": "Last Hope",
        "terrain_grid": {},
        "autotiles": {}
    },
    {
        "nid": "Melkaen Coast",
        "terrain_grid": {},
        "autotiles": {}
    },
    {
        "nid": "Phantom Ship",
        "terrain_grid": {},
        "autotiles": {}
    },
    {
        "nid": "Queen of White Dunes",
        "terrain_grid": {},
        "autotiles": {}
    },
    {
        "nid": "River of Regrets",
        "terrain_grid": {},
        "autotiles": {}
    },
    {
        "nid": "Ruled By Madness",
        "terrain_grid": {},
        "autotiles": {}
    },
    {
        "nid": "Sacred Stone",
        "terrain_grid": {},
        "autotiles": {}
    },
    {
        "nid": "Scorched Sand",
        "terrain_grid": {},
        "autotiles": {}
    },
    {
        "nid": "Tower of Valni 1",
        "terrain_grid": {},
        "autotiles": {}
    },
    {
        "nid": "Tower of Valni 2",
        "terrain_grid": {},
        "autotiles": {}
    },
    {
        "nid": "Tower of Valni 3",
        "terrain_grid": {},
        "autotiles": {}
    },
    {
        "nid": "Tower of Valni 4",
        "terrain_grid": {},
        "autotiles": {}
    },
    {
        "nid": "Tower of Valni 5",
        "terrain_grid": {},
        "autotiles": {}
    },
    {
        "nid": "Tower of Valni 6",
        "terrain_grid": {},
        "autotiles": {}
    },
    {
        "nid": "Tower of Valni 7",
        "terrain_grid": {},
        "autotiles": {}
    },
    {
        "nid": "Tower of Valni 8",
        "terrain_grid": {},
        "autotiles": {}
    },
    {
        "nid": "Two Faces of Evil",
        "terrain_grid": {},
        "autotiles": {}
    },
    {
        "nid": "Village of Silence",
        "terrain_grid": {},
        "autotiles": {}
    },
    {
        "nid": "Creeping Darkness_fog",
        "terrain_grid": {},
        "autotiles": {}
    },
    {
        "nid": "Phantom Ship_fog",
        "terrain_grid": {},
        "autotiles": {}
    },
    {
        "nid": "Landing at Taizel (1)",
        "terrain_grid": {},
        "autotiles": {}
    },
    {
        "nid": "Last Hope_fog",
        "terrain_grid": {},
        "autotiles": {}
    }
]