[
    "Affinity",
    "Anima",
    "Axe",
    "Boosters",
    "Bow",
    "Consumable",
    "Dark",
    "Lance",
    "Light",
    "Neutral",
    "Skills",
    "Staff",
    "Sword",
    "Valuable",
    "wexp_icons",
    "All_Icons"
]