[
    [
        "num_items",
        5
    ],
    [
        "num_accessories",
        0
    ],
    [
        "turnwheel",
        true
    ],
    [
        "initiative",
        false
    ],
    [
        "fatigue",
        false
    ],
    [
        "lead",
        false
    ],
    [
        "bexp",
        false
    ],
    [
        "rd_bexp_lvl",
        false
    ],
    [
        "support",
        false
    ],
    [
        "overworld",
        false
    ],
    [
        "unit_notes",
        false
    ],
    [
        "crit",
        true
    ],
    [
        "trade",
        true
    ],
    [
        "growth_info",
        true
    ],
    [
        "backpropagate_difficulty_growths",
        true
    ],
    [
        "line_of_sight",
        false
    ],
    [
        "aura_los",
        false
    ],
    [
        "fog_los",
        false
    ],
    [
        "ai_fog_of_war",
        false
    ],
    [
        "def_double",
        true
    ],
    [
        "enemy_leveling",
        "Dynamic"
    ],
    [
        "auto_promote",
        false
    ],
    [
        "promote_level_reset",
        true
    ],
    [
        "class_change_level_reset",
        false
    ],
    [
        "generic_feats",
        false
    ],
    [
        "min_damage",
        0
    ],
    [
        "boss_crit",
        false
    ],
    [
        "convoy_on_death",
        false
    ],
    [
        "give_and_take",
        false
    ],
    [
        "reset_mana",
        false
    ],
    [
        "double_splash",
        false
    ],
    [
        "num_save_slots",
        3
    ],
    [
        "attack_zero_hit",
        true
    ],
    [
        "attack_zero_dam",
        true
    ],
    [
        "zero_move",
        true
    ],
    [
        "game_nid",
        "SS"
    ],
    [
        "title",
        "Sacred Stones Mock"
    ],
    [
        "title_particles",
        true
    ],
    [
        "music_main",
        "Main Theme"
    ],
    [
        "music_promotion",
        "To A Higher Place"
    ],
    [
        "music_class_change",
        "To A Higher Place"
    ],
    [
        "restart_phase_music",
        false
    ],
    [
        "kill_wexp",
        true
    ],
    [
        "double_wexp",
        true
    ],
    [
        "miss_wexp",
        true
    ],
    [
        "exp_curve",
        0.035
    ],
    [
        "exp_magnitude",
        10.0
    ],
    [
        "exp_offset",
        0
    ],
    [
        "kill_multiplier",
        3.0
    ],
    [
        "boss_bonus",
        40
    ],
    [
        "min_exp",
        1
    ],
    [
        "default_exp",
        11
    ],
    [
        "heal_curve",
        1.0
    ],
    [
        "heal_magnitude",
        0
    ],
    [
        "heal_offset",
        7.0
    ],
    [
        "heal_min",
        5
    ],
    [
        "dark_sprites",
        false
    ],
    [
        "glancing_hit",
        false
    ]
]