[
    "Lord (M) T1 Roy - Generic {AnnoyingAnon}",
    "Lord (M) T1 Roy {IS}",
    "Lord (M) T2 Roy Revamp {Jeorge Reds}",
    "Lord (M) T2 Roy Knight {ZoramineFae}",
    "Lord (M) T2 Master Lord Roy {IS}",
    "Lord (F) Lyn {IS}",
    "Lord (F) Lyn Axe {Vilkalizer, Morth}",
    "Lord (F) Lyn Bow {StreetHero}",
    "Blade Lord (F) {FE7if}",
    "Blade Lord (F) Brave Lyn Mounted {StreetHero}",
    "Blade Lord (F) Exalt-Magic {FE7if}",
    "Blade Lord (F) Generic {AnnoyingAnon}",
    "Blade Lord (F) Kawaii Blader {blood}",
    "Blade Lord (F) Lyn {IS}",
    "Blade Lord (F) Lyn Axe {Vilkalizer, Morth}",
    "Lord (M) Eliwood {IS}",
    "Lord (M) Eliwood Lance {ArcaneEli}",
    "Lord (M) Marth, Eliwood Base {Dominus_Vobiscum}",
    "Knight Lord (M) Eliwood {IS}",
    "Lord (F) Hector {Shin19}",
    "Lord (M) Hector {IS}",
    "Gladiator (M) {Pikmin1211, L95}",
    "Gladiator (M) {SSHX}",
    "Great Lord (M) Hector {IS}",
    "Great Lord (F) Hector-Chain Axe {Aruka, Kenpuhu}",
    "Great Lord (M) Hector-Harbinger {SD9K}",
    "Greil Lord (M) {Unknown}",
    "Lord (F) Eirika {IS}",
    "Lord (F) Eirika Axe {FE7if}",
    "Lord (F) Eirika Magic {MeatOfJustice, Sme}",
    "Lord (F) Priestess {blood}",
    "Lord (F) Red Bean's Celica {Blood}",
    "Great Lord (F) Eirika {IS}",
    "Great Lord (F) Eirika Sniper {ArcaneEli}",
    "Lord (F) Ephraim-Sharena {Circleseverywhere}",
    "Lord (F) Lucina {BatimaTheBat}",
    "Lord (M) Alfonse {Circleseverywhere}",
    "Lord (M) Ephraim {IS}",
    "Lord (M) Ephraim +Axe {Its_Just_Jay}",
    "Lord (M) Ephraim Bow {SSHX}",
    "Lord (M) Ephraim Sword {Teraspark}",
    "Lord (M) Sword Generic {Leif}",
    "Lord (M) Ephraim-Lyon Pairup (M) {Devisian_Nights}",
    "Great Lord (M) Ephraim {IS}",
    "Great Lord (M) Ephraim Axe {Sme}",
    "Great Lord (M) Ephraim-Infantry {Snewping}",
    "Great Lord (M) Ephraim-Infantry Alt {Dellhonne}",
    "Great Lord (M) Marth Hero King v1 {Dominus_Vobiscum}",
    "Great Lord (M) Marth Hero King v2 {Dominus_Vobiscum, Snewping}",
    "Ike Vanguard (M) {Unknown}",
    "Brigand (F) {Skitty}",
    "Brigand (M) {IS}",
    "Brigand (M) Armored {NYZGamer3}",
    "Brigand (M) Armored {Rasdel}",
    "Brigand (M) Armored Fix {flasuban}",
    "Brigand (M) Barbarian {Glaceo}",
    "Brigand (M) Improved {Flasuban}",
    "Marauder (M) {Author_Pendragon}",
    "Marauder (M) Basic {Blademaster}",
    "Marauder (M) Spud's {LonkFC}",
    "Pirate (F) {flasuban, Mikey_Seregon}",
    "Pirate (F) {StreetHero}",
    "Pirate (M) {IS}",
    "Pirate DS-Style {DerTheVaporeon}",
    "Pirate DS-Style No-Bandana {DerTheVaporeon}",
    "Pirate Hat (F) {Glaceo, Skitty, blood}",
    "Pirate Hat (M) {7743}",
    "Berserker (F) {Unknown}",
    "Berserker (F) Hawkzerker {Pikmin1211, DerTheVaporeon}",
    "Berserker (F) Thin {FEGirls}",
    "Berserker (M) {IS}",
    "Berserker (M) Bow {ZoramineFae}",
    "Berserker (M) Dartserker {WarPath}",
    "Berserker (M) Fists {ZoramineFae}",
    "Berserker (M) Hawkeye {IS}",
    "Berserker (M) Hawkzerker {NYZgamer3}",
    "Berserker (M) Lance {ZoramineFae}",
    "Berserker (M) Staff {ZoramineFae}",
    "Berserker (M) Sword {ZoramineFae}",
    "Journeyman (M) {IS}",
    "Fighter (F) {Alusq}",
    "Fighter (F) FE10-Style {Pikmin1211}",
    "Fighter (F) Thin {FEGirls}",
    "Fighter (M) {IS}",
    "Fighter (M) FE10-Style {L95}",
    "Fighter (M) FE10-Style Sword {L95, Warpath}",
    "Fighter (M) Revamped {Alusq}",
    "Warrior (F) {FEGirls}",
    "Warrior (M) {IS}",
    "Warrior (M) T3 Reaver {flasuban}",
    "Archer (F) {IS}",
    "Archer (F) Improved {DerTheVaporeon}",
    "Archer (M) {IS}",
    "Archer (M) FE5-Style {Unknown}",
    "Archer (M) FE14-Style Thief Bow {Rasdel}",
    "Archer (M) Improved {DerTheVaporeon}",
    "Hunter (F) {MeatOfJustice}",
    "Hunter (M) {Deranger}",
    "Hunter (M) {MeatOfJustice}",
    "Sniper (F) {ArcherBias}",
    "Sniper (F) {IS}",
    "Sniper (M) {ArcherBias}",
    "Sniper (M) {IS}",
    "Arbalest (M) Mounted Ballista {DerTheVaporeon, Pikmin1211}",
    "Ballistician (F) {dondon151}",
    "Ballistician (M) {dondon151}",
    "Ballistician (U) {Aruka, Kenpuhu}",
    "Nomad (F) {IS}",
    "Nomad (M) {IS}",
    "Nomad Ranger (M) Bow Knight {blood}",
    "Nomad Trooper (F) {IS}",
    "Nomad Trooper (M) {IS}",
    "Ranger (F) Improved {flasuban}",
    "Ranger (F) Rebecca {Teraspark}",
    "Ranger (M) {IS}",
    "Recruit (F) Amelia {IS}",
    "Recruit (M) {Waleed}",
    "Deserter (M) {Alusq}",
    "Lancer (M) {Unknown}",
    "Amelia (F) T1 Spud's Infantry {Blood}",
    "Soldier (F) Echoes {FireEmblemier, flasuban}",
    "Soldier (F) FE10-Style {flasuban}",
    "Soldier (F) FE10-Style v2 {flasuban}",
    "Soldier (M) {IS}",
    "Soldier (M) Alt {Alusq}",
    "Soldier (M) Echoes {FireEmblemier, flasuban}",
    "Soldier (M) Ephraim-Style {Aruka, Kenpuhu}",
    "Soldier (M) FE10-Style {flasuban}",
    "Soldier (M) FE10-Style v2 {flasuban}",
    "Soldier (M) Shield {Rexacuse, Peerless, Alusq} (1)",
    "Halberdier (F) Amelia {blood, Dei, dondon151}",
    "Halberdier (M) 1.0 {Unknown}",
    "Halberdier (M) 2.0 {TBA}",
    "Halberdier (M) Alt A {Aruka, Kenpuhu}",
    "Halberdier (U) {Dei, dondon151}",
    "Dragoon (M) {Unknown}",
    "Dragoon (M) v2 {Pikmin1211, Unknown}",
    "Spartan (M) {DerTheVaporeon}",
    "Villager (F) {HyperGammaSpaces}",
    "Villager (M) {HyperGammaSpaces}",
    "Mercenary (F) {Agro}",
    "Mercenary (F) {FEGirls}",
    "Mercenary (F) Improved {flasuban}",
    "Mercenary (F) Long-Hair {Rasdel}",
    "Mercenary (M) {IS}",
    "Mercenary (M) Armored {Unknown}",
    "Mercenary (M) Axe {Flasuban, ArcherBias}",
    "Mercenary (M) Axe {Unknown}",
    "Mercenary (M) Beta Edit {Unknown}",
    "Mercenary (M) Improved {flasuban}",
    "Hero (F) Axe {StreetHero}",
    "Hero (F) Blue Shield {Pikmin1211}",
    "Hero (F) Gerik-Style Sword {Nuramon}",
    "Hero (F) Golden Shield {Pikmin1211, Pushwall}",
    "Hero (F) Sword {IS}",
    "Hero (M) Axe {Raspberry}",
    "Hero (M) Blue Shield {Pikmin1211}",
    "Hero (M) Gerik-Style Sword {Nuramon}",
    "Hero (M) Golden Shield {Pikmin1211}",
    "Hero (M) Sword {IS}",
    "Thug (M) {Rasdel}",
    "Myrmidon (F) {FEGirls}",
    "Myrmidon (F) Bow {N426}",
    "Myrmidon (F) Karla-Style {Raulster}",
    "Myrmidon (F) Ponytail Sword {IS}",
    "Myrmidon (M) {IS}",
    "Myrmidon (M) Awakening-Style {Leo_link}",
    "Myrmidon (M) Bow {N426}",
    "Myrmidon (M) Joshua {blood}",
    "Myrmidon (M) Shorthaired {Sephie}",
    "Swordmaster (F) {IS}",
    "Swordmaster (F) Alt {FE7if}",
    "Swordmaster (M) Bald {Pikmin1211, L95}",
    "Swordmaster (M) FE10-Style {L95}",
    "Swordmaster (M) Guy {IS}",
    "Swordmaster (M) Izark {Yangfly Master}",
    "Swordmaster (M) Joshua {Aruka, Yggdra}",
    "Swordmaster (M) Minor Edit {MrGreen}",
    "Swordmaster (M) Short Hair {Shtick}",
    "Dread Fighter (F) {Nuramon}",
    "Dread Fighter (M) {Nuramon}",
    "Sephiroth (M) {N426}",
    "Thief (F) {IS}",
    "Thief (F) FE5-Style {Yangfly Master}",
    "Thief (M) {IS}",
    "Thief (M) Jaffar {Yera}",
    "Thief (M) Unhooded {Rasdel}",
    "Rogue (F) {Unknown}",
    "Rogue (F) Trickster-Valkyrie {Aruka, Kenpuhu}",
    "Rogue (M) {IS}",
    "Katt (F) Bo Staff {FE7if}",
    "Assassin (F) {RobertFPY}",
    "Assassin (M) Hoodless {RobertFPY}",
    "Assassin (M) Jaffar {IS}",
    "Assassin (M) Legault {IS}",
    "Ninja (U) {DerTheVaporeon}",
    "Trickster (M) {StreetHero, blood}",
    "Knight (F) Bow {flasuban}",
    "Knight (M) Axe {SALVAGED, BoneManSeth}",
    "Knight (M) Bow {flasuban}",
    "Knight (M) Bow {SALVAGED, BoneManSeth}",
    "Knight (M) Bow +Shield on Back {SALVAGED, BoneManSeth}",
    "Knight (M) Lance {SALVAGED, BoneManSeth}",
    "Knight (M) Sword {SALVAGED, BoneManSeth}",
    "Knight (U) Axe {Agro}",
    "Knight (U) Axe {SALVAGED}",
    "Knight (U) Axe Alt {SALVAGED, Blademaster}",
    "Knight (U) Axe FE10-Style {Unknown}",
    "Knight (U) Bow {Agro}",
    "Knight (U) Bow {SALVAGED}",
    "Knight (U) Bow Alt {SALVAGED}",
    "Knight (U) Bow FE10-Style {Unknown}",
    "Knight (U) Lance {IS}",
    "Knight (U) Lance {SALVAGED}",
    "Knight (U) Lance Alt {Agro}",
    "Knight (U) Lance FE10-Hybrid-Style {Nuramon, flasuban}",
    "Knight (U) Lance FE10-Style {Unknown}",
    "Knight (U) Magic FE10-Style {flasuban}",
    "Knight (U) Sword {Agro}",
    "Knight (U) Sword {SALVAGED}",
    "Knight (U) Sword FE10-Style {Unknown}",
    "Staff Armor (U) {knabepicer}",
    "General (F) Red Bean's Amelia {IS, Blood}",
    "General (M) Sword Marshall Zelgius {Nuramon}",
    "General (M) Sword Marshall Zelgius Helmless {Nuramon}",
    "General (U) Axe {IS, Blademaster}",
    "General (U) Axe Marshall {Nuramon}",
    "General (U) Axe Marshall Capeless {Nuramon}",
    "General (U) Baron Magic {WarPath}",
    "General (U) Baron V2 +Cape and Shield {Nuramon, Its_Just_Jay}",
    "General (U) Lance {IS}",
    "General (U) Lance Marshall {Nuramon}",
    "General (U) Lance Marshall Capeless {Nuramon}",
    "General (U) Lance Shield {Nuramon}",
    "General (U) Sword Marshall {Nuramon}",
    "General (U) Sword Marshall Alt {Nuramon}",
    "General (U) Sword Marshall Capeless {Nuramon}",
    "Guardian (M) Berwick Saga {SSHX}",
    "Sergeant (M) {Spud}",
    "King (M) Zephiel {Elibian Nights}",
    "King (M) Zephiel {IS}",
    "King (U) Generic {Elibian Nights, L95, Pikmin1211, DerTheVaporeon, Huichelaar}",
    "Squire (M) {Maiser6}",
    "Squire (M) {Yangfly Master}",
    "Camel Rider (M) Lance {Orihara Saki}",
    "Cavalier (F) Axe {SALVAGED, Pikmin1211}",
    "Cavalier (F) Axe Alt {RobertFPY}",
    "Cavalier (F) Axe Revision {flasuban, Tordo45}",
    "Cavalier (F) Axe SALVAGED Alt Hair {flasuban}",
    "Cavalier (F) Lance {SALVAGED, Pikmin1211}",
    "Cavalier (F) Lance {Tordo45}",
    "Cavalier (F) Lance Revision {flasuban, Tordo45}",
    "Cavalier (F) Lance SALVAGED Alt Hair {flasuban}",
    "Cavalier (F) Sword {Agro}",
    "Cavalier (F) Sword {SALVAGED, Pikmin1211}",
    "Cavalier (F) Sword Alt {RobertFPY}",
    "Cavalier (F) Sword Revision {flasuban, Tordo45}",
    "Cavalier (F) Sword SALVAGED Alt Hair {flasuban}",
    "Cavalier (F) Sword SALVAGED Ponytail {Rasdel}",
    "Cavalier (M) Axe {SALVAGED}",
    "Cavalier (M) Axe {Siuloir}",
    "Cavalier (M) Lance {IS}",
    "Cavalier (M) Lance {SALVAGED}",
    "Cavalier (M) Sword {Agro}",
    "Cavalier (M) Sword {SALVAGED}",
    "Great Knight (F) {IS, Blood}",
    "Great Knight (M) {IS}",
    "Great Knight (M) Alt {Pikmin1211, L95, DerTheVaporeon}",
    "Gold Knight (U) Axe {Pikmin1211, DerTheVaporeon}",
    "Paladin (F) Axe {L95}",
    "Paladin (F) Lance {L95}",
    "Paladin (F) Lance Ponytail {Tordo45}",
    "Paladin (F) Lance Revision {flasuban, Tordo45}",
    "Paladin (F) Sword {RobertFPY}",
    "Paladin (F) Sword Ponytail {Unknown}",
    "Paladin (M) Axe v2 {RobertFPY}",
    "Paladin (M) Lance {IS}",
    "Paladin (M) Lance v2 {Pikmin1211}",
    "Paladin (M) Sword v2 {RobertFPY}",
    "Grand Paladin (M) {HyperGammaSpaces}",
    "Master Knight (F) Lance {Unknown}",
    "Master Knight (M) Lance {Unknown}",
    "Pegasi (F) T1 {IS}",
    "Pegasi (F) T1 Axe {Flasuban}",
    "Pegasi (F) T1 Black Beauty {L95}",
    "Pegasi (F) T1 Edit {flasuban}",
    "Pegasi (F) T1 Helmless Sword {Sephie}",
    "Pegasi (F) T1 Lance {Flasuban}",
    "Pegasi (F) T1 Staff {WarPath}",
    "Pegasi (F) T1 Sword {Flasuban}",
    "Pegasi (F) T2 Black Beauty {L95}",
    "Pegasi (F) T2 Lance {IS}",
    "Pegasi (F) T2 Revision Lance {flasuban}",
    "Pegasi (F) T2 Staff {Blademaster}",
    "Pegasi (F) T3 Seraph Lance {CamusZekeSirius, flasuban}",
    "Pegasi (F) T3 Seraph Lance {CamusZekeSirius}",
    "Pegasi (F) T3 Seraph Lance v2 {CamusZekeSirius, flasuban}",
    "Pegasi (U) Custom Deva {Ayr}",
    "Nephilim (U) Custom {Ayr}",
    "Harrier (U) Custom {Ayr}",
    "Wyvern (F) T1 Rider Axe {flasuban}",
    "Wyvern (F) T1 Rider Lance {flasuban}",
    "Wyvern (F) T2 Knight Axe {ArcaneEli, Blood, Yikes!}",
    "Wyvern (F) T2 Knight Lance {Blood}",
    "Wyvern (F) T2 Lord Lance {SHYUTER}",
    "Wyvern (M) T1 Rider Axe {flasuban}",
    "Wyvern (M) T1 Rider Lance {flasuban}",
    "Wyvern (M) T2 Lord Helmless Axe {flasuban}",
    "Wyvern (M) T2 Lord Helmless Lance {flasuban}",
    "Wyvern (U) T1 Rider Axe {Unknown}",
    "Wyvern (U) T1 Rider Lance {IS}",
    "Wyvern (U) T2 Knight Axe {ArcaneEli}",
    "Wyvern (U) T2 Knight Lance {IS}",
    "Wyvern (U) T2 Lord Armored Lance {SHYUTERz}",
    "Wyvern (U) T2 Lord Lance {IS}",
    "Wyvern (U) T2 Lord Lance Alt {IS}",
    "Malig Knight (M) Axe {Pikmin1211}",
    "Wicked Flier (U) {MeatOfJustice}",
    "Griffon Knight (U) Lance {Haifried}",
    "Griffon Lord (U) Lance {Blue Druid}",
    "Griffon Rider (U) Axe {N426}",
    "Griffon Rider (U) Bow {N426}",
    "Griffon Rider (U) Lance {N426}",
    "Griffon Rider (U) Sword {N426}",
    "Shaman (F) {IS}",
    "Shaman (F) Staff {CanDy}",
    "Shaman (M) {IS}",
    "Shaman (M) Hoodless {Ash3wl, L95}",
    "Shaman (M) Staff {Ash3wl, L95}",
    "Shaman (M) Sword {SSHX}",
    "Druid (F) {IS}",
    "Druid (M) {IS}",
    "Summoner (F) {Unknown}",
    "Summoner (M) {IS}",
    "Summoner (U) Alt {blood}",
    "Executioner (U) {Huichelaar, IS, Lexou}",
    "Moloch Sorcerer (U) {Huichelaar}",
    "Dark Druid (M) {IS}",
    "Necromancer (F) {Unknown}",
    "Necromancer (M) Generic {Rasdel}",
    "Necromancer (M) Generic Hoodless {Unknown}",
    "Necromancer (M) Lyon {IS}",
    "Cleric (F) Awakening-Style {BatimaTheBat}",
    "Cleric (F) Generic {IS}",
    "Cleric (F) Improved {flasuban}",
    "Cleric (F) Lissa {BatimaTheBat}",
    "Cleric (F) Serra {IS}",
    "Priest (M) {IS}",
    "Priest (M) Improved {flasuban}",
    "Priest (M) Wrys {Dominus_Vobiscum}",
    "Monk (F) {Teraspark}",
    "Monk (F) Aerith {N426}",
    "Monk (M) {IS}",
    "Bishop (F) {IS}",
    "Bishop (F) Serra {IS}",
    "Bishop (M) {IS}",
    "Saint (F) {Melia}",
    "Matriarch (F) {Unknown}",
    "Patriarch (M) {Unknown}",
    "Pupil (M) {IS}",
    "Mage (F) {IS}",
    "Mage (F) Alt {Leif, MeatofJustice}",
    "Mage (F) Awakening {blood}",
    "Mage (F) Fe4-Style Thunder Idle {Ash3wl, L95, Dominus_Vobiscum}",
    "Mage (F) Light Mage {Leo_Link, L95}",
    "Mage (F) Long-Haired {flasuban}",
    "Mage (F) Thief {FEGirls}",
    "Mage (F) Thunder {Leif}",
    "Mage (M) {IS}",
    "Mage (M) Alt {Leif, MeatofJustice}",
    "Mage (M) FE4-Style Fire Idle {Ash3wl, L95}",
    "Mage (M) FE4-Style Thunder Idle {Ash3wl, L95}",
    "Mage (M) FE4-Style Wind Idle {Ash3wl, L95, Dominus_Vobiscum}",
    "Mage (M) FE4-Style Wind Idle {Ash3wl, L95}",
    "Mage (M) Hat Hybrid {Pikmin1211, SamirPlayz}",
    "Mage (M) Hatless {Pikmin1211}",
    "Mage (M) Thunder {Leif}",
    "Sage (F) Alt {Shtick, L95}",
    "Sage (F) Battle Sage {Smug_Mug, Unknown}",
    "Sage (F) Brunnya Archsage {Jiege, TLP}",
    "Sage (F) FE6 {IS}",
    "Sage (F) FE7 {IS}",
    "Sage (F) Lilina Archsage {BatimaTheBat}",
    "Sage (F) Limstella {FE7if}",
    "Sage (F) Long-Haired {Unknown}",
    "Sage (F) Thief-Style {FEGirls}",
    "Sage (M) {IS}",
    "Sage (M) Battle Mage Fighter {L95}",
    "Sage (M) Battle Sage {Smug_Mug, Unknown}",
    "Sage (M) FE2 {Leif, MeatofJustice}",
    "Archsage (M) {IS}",
    "High Magus (F) {Unknown}",
    "High Magus (M) {Unknown}",
    "Mage (F) Angel {Unknown}",
    "War Cleric (F) Axe {DerTheVaporeon}",
    "War Monk (M) Axe {DerTheVaporeon}",
    "War Monk (M) Staff {DerTheVaporeon, Author_Pendragon}",
    "Pegasi Mage (F) Pale Flower Nino {StreetHero}",
    "Witch (F) {Aruka, Kenpuhu}",
    "Seer (M) {Devisian_Nights}",
    "Occultist (M) {Devisian_Nights, Pikmin1211}",
    "Tactician (U) FE7 {IS}",
    "Bramimond (U) {IS}",
    "Troubadour (F) {IS}",
    "Troubadour (F) Thaumaturge {Pikmin1211, DerTheVaporeon}",
    "Troubadour (M) Deacon {Unknown}",
    "Troubadour (M) Thaumaturge {Pikmin1211, DerTheVaporeon}",
    "Dark Knight (U) {Pikmin1211, Nuramon, DerTheVaporeon}",
    "Dark Knight (U) Helm {Unknown}",
    "Dark Knight (U) Hood {Pikmin1211, Nuramon, DerTheVaporeon}",
    "Valkyrie (F) {IS}",
    "Valkyrie (F) Non-Religious {DerTheVaporeon}",
    "Valkyrie (M) Non-Religious {DerTheVaporeon}",
    "Mage Knight (F) {IS}",
    "Mage Knight (F) Selena {jiege}",
    "Mage Knight (M) {IS}",
    "Bard (F) {GabrielKnight}",
    "Bard (M) Elffin {IS}",
    "Bard (M) Fancy {MeatOfJustice}",
    "Bard (M) Nils {IS}",
    "Bard (M) Sonneteer Elffin {Marlon&Louis}",
    "Dancer (F) Larum {IS}",
    "Dancer (F) Ninian {IS}",
    "Dancer (F) Tethys {IS}",
    "Dancer (M) FE8-Style {L95}",
    "Supplier (F) Lance {N426}",
    "Supplier (F) Lance v2 {N426}",
    "Supplier (F) Potion {N426}",
    "Supplier (F) Potion v2 {N426}",
    "Tent (U) {Gabrielknight}",
    "Transporter (U) T1 Tent {IS}",
    "Transporter (U) T2 Wagon {IS}",
    "Transporter (U) T3 Hot Air Balloon {Warpath}",
    "Magic Seal (M) {IS}",
    "Noble (M) {Aruka, Kenpuhu}",
    "Peer (M) {IS}",
    "Pontifex (M) Crown {IS}",
    "Pontifex (M) Hat {N426}",
    "Pontifex (M) Hood {N426}",
    "Prince (M) {EldritchAbomination}",
    "Prince Zephiel {IS}",
    "Princess (F) {IS}",
    "Queen (F) Hat {IS}",
    "Queen (F) Hatless {EldritchAbomination}",
    "Villager (F) Girl {IS}",
    "Villager (F) Woman {IS}",
    "Villager (M) Boy {IS}",
    "Villager (M) Man {IS}",
    "Bael (U) {IS}",
    "Bael (U) Elder {IS}",
    "Bael (U) Queen {Seal}",
    "Wolf (U) T1 {IS}",
    "Wolf (U) T2 Gwyllgi {IS}",
    "Wolf (U) T3 Hellhound {Dellhonne}",
    "Wolf (U) Mauthe Doog T3 {EldritchAbomination}",
    "Lich (U) {SkidMarc25}",
    "Lich (U) by SkidMarc25 {Eldritch Abomination}",
    "Zombie (U) Entombed {IS}",
    "Zombie (U) Lich +Staff {EldritchAbomination, SkidMarc25, Blood}",
    "Zombie (U) T1 {IS}",
    "Zombie (U) T1 Goop {Ryn}",
    "Tarvos (F) Alfred Kamon's Anim {Blood}",
    "Tarvos (F) Centaur Sword {Ryn}",
    "Tarvos (M) Centaur Axe {IS}",
    "Centaur (M) T2 Axe {IS}",
    "Centaur (M) T2 Axe {Seal}",
    "Cyclops (U) Axe {IS}",
    "Gorgon (U) {IS}",
    "Gorgon (U) Egg Black {IS}",
    "Gorgon (U) Egg White {IS}",
    "Mogall (U) {IS}",
    "Mogall (U) Arch {IS}",
    "Mogall (U) Gazer {Seal}",
    "Mogall (U) Jockey Bow {Haifried}",
    "Mogall (U) Jockey Magic {Haifried}",
    "Goyle (U) T1 Lance {IS}",
    "Goyle (U) T2 Lance {IS}",
    "Goyle (U) T2 Lance Alt {L95}",
    "Skeleton (U) Legion Sword {SSHX}",
    "Skeleton (U) Skelebishop {Ryn}",
    "Skeleton (U) Skelemonk {Ryn, N426}",
    "Skeleton (U) T1 Bow {IS}",
    "Skeleton (U) T1 Sword {IS}",
    "Skeleton (U) Wight Bow {IS}",
    "Skeleton (U) Wight Sword {IS}",
    "Skeleton (U) Armored - Wight Bow {SSHX}",
    "Skeleton (U) Armored - Wight Sword {Seal}",
    "Manakete (U) {MeatOfJustice}",
    "Manakete Fae {IS}",
    "Manakete FE6 Generic {IS}",
    "Manakete Myrrh {IS}",
    "Demon Dragon FE6 Idunn {IS}",
    "Demon King Angry {SHYUTERz}",
    "Demon King Improved {MrGreen, IS}",
    "Demon King Stationary {IS}",
    "Dracozombie {IS}",
    "Dragon (U) Myrrh Generic {Kemui52}",
    "Dragon Divine Dragon Fae {Keimu52}",
    "Dragon Duma {SHYUTERz, HIRITO, SHIRMER}",
    "Dragon FE6 Fire Dragon {IS}",
    "Dragon FE7 Fire Dragon {IS}",
    "Dragon Ice Dragon {L95}",
    "Dragon Super {SHYUTER}",
    "Undead Dragon FE8 Morva {IS}",
    "Wild Horse Brown {L95}",
    "Wild Horse White {N426}",
    "Wild Pegasus Brown {N426}",
    "Wild Pegasus White {N426}",
    "Wild Wyvern (U) {Faeriefruit}",
    "Evergrim (U) Evil Tree {Almirage, Jj09}",
    "Ghost (U) {Eldritch Abomination}",
    "Kraken Sea Monster {Xenith}",
    "Mermaid (F) {ZoramineFae}",
    "Mimic (U) {Seal}",
    "Phantom {IS}",
    "Salamander (U) {Memai}",
    "Salamander (U) Hat {Memae}",
    "Succubus (F) {SkidMarc25}",
    "Tiger {RandomWizard, Squaresoft}",
    "Cursed Sword (U) {DerTheVaporeon}",
    "Shield (U) {N426}",
    "Shield (U) Blank {N426}",
    "Tome (U) Anima {N426}",
    "Tome (U) Axe {N426}",
    "Tome (U) Blank {N426}",
    "Tome (U) Bow {N426}",
    "Tome (U) Dark {N426}",
    "Tome (U) Lance {N426}",
    "Tome (U) Light {N426}",
    "Tome (U) Sword {N426}",
    "Boat (U) {IS}",
    "Sword Maiden (F) Yuril Artwaltz {Aruka, Kenpuhu}",
    "Goose (U) Honk!! {Faeriefruit}",
    "Sandbag (U) {SHYUTERz}",
    "Torch (U) {FE7if}",
    "Invisible-stand"
]